BM_EGM
…
saveRDS(egm_data,file="egm_data.rds")

SOME ANALYSIS

egm_data %>% 
  select(date,n_of_participants,pension_fund_company,n_of_pensioners,n_of_ind_contracts) %>% arrange(n_of_pensioners) %>% 
  filter(n_of_participants>50000 & n_of_participants<100000)

## # A tibble: 76 x 5
##    date  n_of_participan… pension_fund_co… n_of_pensioners n_of_ind_contr…
##    <chr>            <dbl> <chr>            <chr>                     <dbl>
##  1 06.0…            62080 Groupama Emekli… 1963                      61411
##  2 13.0…            61925 Groupama Emekli… 1981                      61246
##  3 20.0…            61774 Groupama Emekli… 1998                      61064
##  4 27.0…            61590 Groupama Emekli… 2023                      60852
##  5 31.0…            61591 Groupama Emekli… 2027                      60855
##  6 03.0…            61576 Groupama Emekli… 2039                      60833
##  7 10.0…            61427 Groupama Emekli… 2056                      60654
##  8 17.0…            61298 Groupama Emekli… 2073                      60495
##  9 24.0…            61053 Groupama Emekli… 2096                      60222
## 10 28.0…            61050 Groupama Emekli… 2102                      60217
## # ... with 66 more rows

egm_data  %>% group_by(date) %>%summarise(MeanOfParticipants= mean(n_of_participants))

## # A tibble: 76 x 2
##    date       MeanOfParticipants
##    <chr>                   <dbl>
##  1 01.09.2017            379582.
##  2 01.12.2017            383313.
##  3 02.02.2018            384803.
##  4 02.03.2018            386044.
##  5 02.06.2017            377354.
##  6 03.02.2017            373374.
##  7 03.03.2017            374766.
##  8 03.11.2017            381675 
##  9 04.08.2017            379189.
## 10 05.01.2018            384943.
## # ... with 66 more rows
…
